ETABLISSEMENT;CODE;LIBELLE;ADRESSE_NUMERO;ADRESSE_NUMERO2;ADRESSE_VOIE;ADRESSE_COMPLEMENT;LIEU_DIT;BOITE_POSTALE;ADRESSE_CP;ADRESSE_VILLE;ADRESSE_ARRONDISSEMENT;CEDEX;NPAI;TELEPHONE;FAX;ETABLISSEMENT_NATURE;SIRET;ANNEE_DE_CONSTRUCTION;ETABLISSEMENT_STATUT_JURIDIQUE;ETABLISSEMENT_TUTELLE_ADM;REF_PATRIMOINE;ETABLISSEMENT_TYPE;ETABLISSEMENT_CATEGORIE;ETABLISSEMENT_ETAT_BIS;DATE_ARRETE_OUVERTURE;AUTORITE_POLICE_ENCOURS;OM_VALIDITE_DEBUT;OM_VALIDITE_FIN;SI_EFFECTIF_PUBLIC;SI_EFFECTIF_PERSONNEL;SI_LOCAUX_SOMMEIL;PERIODICITE_VISITES;DATE_PREV_VISITE_PERIODIQUE;VISITE_DUREE;DERNIERE_VISITE_PER_SECU_DATE;DERNIERE_VISITE_SECU_DATE;DERNIERE_VISITE_SECU_AVIS;DERNIERE_VISITE_SECU_TECH;PROCHAINE_VISITE_SECU_DATE;PROCHAINE_VISITE_SECU_TYPE;DERNIERE_VISITE_ACC_DATE;DERNIERE_VISITE_ACC_AVIS;DERNIERE_VISITE_ACC_TECHNICIEN;ACC_CONSIGNES_OM_HTML;ACC_DESCRIPTIF_OM_HTML;CONSIGNES_OM_HTML;SI_DESCRIPTIF_OM_HTML;COMMISSION_COMPET_SECU_VISITE;COMMISSION_COMPET_SECU_PLAN;DERNIER_PLAN_AVIS_SECU;SI_TYPE_ALARME;SI_TYPE_SSI;SI_CONFORMITE_I16;SI_ALIMENTATION_REMPLACEMENT;SI_SERVICE_SECURITE;SI_PERSONNEL_JOUR;SI_PERSONNEL_NUIT
2397;T2397;MONOPRIX DOIZE;249;;RUE PIERRE DOIZE;;;;13010;MARSEILLE;10;;f;;;ERPR;;;;;;M;2;Ouvert;;f;2014-11-19;;;;f;;;;;;;;;;;;;;;;;;;;;;;;;;
2398;T2398;CRECHE LOUIS ARAGON;30;;BD AMEDEE AUTRAN;;;;13007;MARSEILLE;7;;f;;;ERPP;;;;;;R;4;Ouvert;;f;2014-11-19;;;;f;;;;;;;;;;;;;;;;;;;;;;;;;;
2399;T2399;CRECHE ALBERT CAMUS B;62;;RUE DE ROME;;;;13006;MARSEILLE;6;;f;;;ERPP;;;;;;R;4;Ouvert;;f;2014-11-19;;;;f;;;;;;;;;;;;;;;;;;;;;;;;;;
2400;T2400;CRECHE GEORGES BRASSENS;15;;RUE PEYSSONNEL;;;;13003;MARSEILLE;3;;f;;;ERPP;;;;;;R;5;non suivi;;f;2014-11-19;;;;t;;;;;;;;;;;;;;;;;;;;;;;;;;
2401;T2401;CENTRE COMMERCIAL L'ODYSSEE;0;;BD DE LA CARTONNERIE;;;;13012;MARSEILLE;12;;f;;;ERPR;;;;;;M;3;Ouvert;;f;2014-11-19;;;;f;;;;;;;;;;;;;;;;;;;;;;;;;;
2402;T2402;CRECHE LES MAGNANARELLES;22;;RUE BERARD;;;;13005;MARSEILLE;5;;f;;;ERPP;;;;;;R;5;non suivi;;f;2014-11-19;;;;t;;;;;;;;;;;;;;;;;;;;;;;;;;
2444;T2444;CRECHE LE PETIT BOIS;2;;AVE ANDRE ZENATTI;;;;13005;MARSEILLE;5;;f;;;ERPP;;;;;;R;5;non suivi;;f;2014-11-19;;;;t;;;;;;;;;;;;;;;;;;;;;;;;;;
2500;"T2500";"ALDI";15;;"RUE PEYSSONNEL";;;;13003;"MARSEILLE";3;;"f";;;"ERPP";;;;;;"R";5;"non suivi";;"f";"2014-11-19";;;;"f";;;;;;;;;;;;;;;;;;;;;;;;;;
2501;"T2501";"CORA";0;;"BD DE LA CARTONNERIE";;;;13012;"MARSEILLE";12;;"f";;;"ERPR";;;;;;"M";3;"Ouvert";;"f";"2014-11-19";;;;"t";;;;;;;;;;;;;;;;;;;;;;;;;;
2502;"T2502";"MAMMOUTH";22;;"RUE BERARD";;;;13005;"MARSEILLE";5;;"f";;;"ERPP";;;;;;"R";5;"non suivi";;"f";"2014-11-19";;;;"f";;;;;;;;;;;;;;;;;;;;;;;;;;
2503;"T2503";"CARROUF";22;;"RUE BERARD";;;;13005;"MARSEILLE";5;;"f";;;"ERPP";;;;;;"R";5;"non suivi";;"f";"2014-11-19";;;;"t";;;;;;;;;;;;;;;;;;;;;;;;;;
